Year;Name;ID;Host;City;Country;Submission deadline;Revision deadline;Final paper deadline;Author registration deadline;Date;Duration (days);Website;Organizer;Email;Organizer;Email
2013;9th International CDIO Conference;CDIO09;MIT and Harvard School of Engineering and Applied Sciences;Cambridge, MA;United States;Sunday, January 6, 2013;Monday, March 18, 2010;Sunday, April 14, 2013;Tuesday, May 7, 2013;Sunday, June 9, 2013;5;http://laspau.org/cdio2013/;Doris Brodeur;cdio2013@mit.edu;Paul Revere;revere@harvard.edu
2010;6th International CDIO Conference;CDIO06;Ecole Polytechnique de Montreal;Montreal;Canada;Sunday, January 10, 2010;Monday, March 22, 2010;Sunday, April 25, 2010;Tuesday, May 11, 2010;Monday, June 14, 2010;5;http://cdio.polymtl.ca/;Clement Fortin;cdio2010@polymtl.ca;Charles McCartan;c.mccartan@qub.ac.uk
