ConferenceID;ID;Reviewer;Reviewer confidence;Suitability for the event;Originality;Quality;Overall Recommendation
CDIO06;CDIO06ARM;hulk@marvel.com;3;4;4;4;Accept
CDIO06;CDIO06ARM;rubberwoman@disney.com;5;5;4;5;Accept
CDIO06;CDIO06ARM;thing@marvel.com;4;4;3;4;Accept
CDIO06;CDIO06CHB;hulk@marvel.com;3;4;4;4;Accept
CDIO06;CDIO06CHB;rubberwoman@disney.com;5;5;4;4;Accept
CDIO06;CDIO06CHB;thing@marvel.com;3;4;3;4;Accept
CDIO06;CDIO06K011;hulk@marvel.com;3;4;4;4;Accept
CDIO06;CDIO06K011;thing@marvel.com;4;5;5;5;Accept
CDIO06;CDIO06K011;wolverine@marvel.com;4;5;4;5;Accept
CDIO06;CDIO06K012;hulk@marvel.com;3;4;4;4;Accept
CDIO06;CDIO06K012;thing@marvel.com;5;4;5;4;Accept
CDIO06;CDIO06K012;wolverine@marvel.com;3;5;5;5;Accept
CDIO06;CDIO06K013;hulk@marvel.com;5;5;4;5;Accept
CDIO06;CDIO06K013;thing@marvel.com;4;4;4;4;Accept
CDIO06;CDIO06K013;wolverine@marvel.com;3;4;4;4;Accept
CDIO06;CDIO06K014;hulk@marvel.com;5;5;4;5;Accept
CDIO06;CDIO06K014;thing@marvel.com;4;3;5;4;Accept
CDIO06;CDIO06K014;wolverine@marvel.com;3;4;4;4;Accept
CDIO06;CDIO06K015;hulk@marvel.com;5;5;4;4;Accept
CDIO06;CDIO06K015;thing@marvel.com;5;3;3;3;Reject
CDIO06;CDIO06K015;wolverine@marvel.com;3;4;4;4;Accept
CDIO06;CDIO06K016;hulk@marvel.com;5;5;4;4;Accept
CDIO06;CDIO06K016;thing@marvel.com;5;4;5;5;Accept
CDIO06;CDIO06K016;wolverine@marvel.com;5;5;4;5;Accept
CDIO06;CDIO06K017;hulk@marvel.com;4;4;3;4;Accept
CDIO06;CDIO06K017;thing@marvel.com;4;5;4;5;Accept
CDIO06;CDIO06K017;wolverine@marvel.com;5;5;4;5;Accept
CDIO06;CDIO06K018;hulk@marvel.com;3;4;3;4;Accept
CDIO06;CDIO06K018;mickey@disney.com;5;5;4;4;Accept
CDIO06;CDIO06K018;thing@marvel.com;3;5;5;5;Accept
CDIO06;CDIO06K019;hulk@marvel.com;5;4;3;4;Accept
CDIO06;CDIO06K019;mickey@disney.com;5;5;4;4;Accept
CDIO06;CDIO06K019;thing@marvel.com;3;4;4;4;Accept
CDIO06;CDIO06K020;hulk@marvel.com;5;4;4;4;Accept
CDIO06;CDIO06K020;mickey@disney.com;4;4;3;4;Accept
CDIO06;CDIO06K020;thing@marvel.com;3;4;4;4;Accept
CDIO06;CDIO06K021;hulk@marvel.com;4;4;3;4;Accept
CDIO06;CDIO06K021;mickey@disney.com;3;4;3;4;Accept
CDIO06;CDIO06K021;thing@marvel.com;5;5;4;5;Accept
CDIO06;CDIO06K022;hulk@marvel.com;4;4;4;4;Accept
CDIO06;CDIO06K022;mickey@disney.com;5;4;3;4;Accept
CDIO06;CDIO06K022;thing@marvel.com;5;5;4;5;Accept
CDIO06;CDIO06K023;hulk@marvel.com;4;5;5;5;Accept
CDIO06;CDIO06K023;mickey@disney.com;5;4;4;4;Accept
CDIO06;CDIO06K023;thing@marvel.com;5;5;4;4;Accept
CDIO06;CDIO06K024;hulk@marvel.com;5;4;5;4;Accept
CDIO06;CDIO06K024;mickey@disney.com;4;4;3;4;Accept
CDIO06;CDIO06K024;thing@marvel.com;5;5;4;4;Accept
CDIO06;CDIO06K025;hulk@marvel.com;4;4;4;4;Accept
CDIO06;CDIO06K025;mickey@disney.com;4;4;4;4;Accept
CDIO06;CDIO06K025;thing@marvel.com;4;4;3;4;Accept
CDIO06;CDIO06K026;hulk@marvel.com;4;3;5;4;Accept
CDIO06;CDIO06K026;mickey@disney.com;4;5;5;5;Accept
CDIO06;CDIO06K026;thing@marvel.com;3;4;3;4;Accept
CDIO06;CDIO06K027;hulk@marvel.com;5;3;3;3;Reject
CDIO06;CDIO06K027;mickey@disney.com;5;4;5;4;Accept
CDIO06;CDIO06K027;thing@marvel.com;5;4;3;4;Accept
CDIO06;CDIO06K028;hulk@marvel.com;5;4;5;5;Accept
CDIO06;CDIO06K028;mickey@disney.com;4;4;4;4;Accept
CDIO06;CDIO06K028;thing@marvel.com;5;4;4;4;Accept
CDIO06;CDIO06K029;hulk@marvel.com;4;5;4;5;Accept
CDIO06;CDIO06K029;mickey@disney.com;4;3;5;4;Accept
CDIO06;CDIO06K029;thing@marvel.com;4;4;3;4;Accept
CDIO06;CDIO06K030;hulk@marvel.com;3;5;5;5;Accept
CDIO06;CDIO06K030;mickey@disney.com;5;3;3;2;Reject
CDIO06;CDIO06K030;thing@marvel.com;3;4;4;4;Accept
CDIO06;CDIO06K031;hulk@marvel.com;3;4;4;4;Accept
CDIO06;CDIO06K031;mickey@disney.com;5;4;5;5;Accept
CDIO06;CDIO06K031;thing@marvel.com;3;4;4;4;Accept
CDIO06;CDIO06K032;hulk@marvel.com;3;4;4;4;Accept
CDIO06;CDIO06K032;mickey@disney.com;4;5;4;5;Accept
CDIO06;CDIO06K032;super.duck@disney.com;5;5;4;5;Accept
CDIO06;CDIO06K033;hulk@marvel.com;3;4;4;4;Accept
CDIO06;CDIO06K033;mickey@disney.com;3;5;5;5;Accept
CDIO06;CDIO06K033;super.duck@disney.com;5;5;4;5;Accept
CDIO06;CDIO06K034;hulk@marvel.com;5;5;4;5;Accept
CDIO06;CDIO06K034;mickey@disney.com;3;4;4;4;Accept
CDIO06;CDIO06K034;super.duck@disney.com;5;5;4;4;Accept
CDIO06;CDIO06K035;hulk@marvel.com;5;5;4;5;Accept
CDIO06;CDIO06K035;mickey@disney.com;3;4;4;4;Accept
CDIO06;CDIO06K035;super.duck@disney.com;5;5;4;4;Accept
CDIO06;CDIO06K036;hulk@marvel.com;5;5;4;4;Accept
CDIO06;CDIO06K036;mickey@disney.com;5;5;4;5;Accept
CDIO06;CDIO06K036;super.duck@disney.com;4;4;3;4;Accept
CDIO06;CDIO06K037;hulk@marvel.com;5;5;4;4;Accept
CDIO06;CDIO06K037;mickey@disney.com;5;5;4;5;Accept
CDIO06;CDIO06K037;super.duck@disney.com;3;4;3;4;Accept
CDIO06;CDIO06K038;hulk@marvel.com;4;4;3;4;Accept
CDIO06;CDIO06K038;mickey@disney.com;5;5;4;4;Accept
CDIO06;CDIO06K038;super.duck@disney.com;5;4;3;4;Accept
CDIO06;CDIO06K039;hulk@marvel.com;3;4;3;4;Accept
CDIO06;CDIO06K039;mickey@disney.com;5;5;4;4;Accept
CDIO06;CDIO06K039;super.duck@disney.com;5;4;4;4;Accept
CDIO06;CDIO06K040;hulk@marvel.com;5;4;3;4;Accept
CDIO06;CDIO06K040;mickey@disney.com;4;4;3;4;Accept
CDIO06;CDIO06K040;super.duck@disney.com;4;4;3;4;Accept
CDIO06;CDIO06K041;hulk@marvel.com;5;4;4;4;Accept
CDIO06;CDIO06K041;mickey@disney.com;3;4;3;4;Accept
CDIO06;CDIO06K041;super.duck@disney.com;4;4;4;4;Accept
CDIO06;CDIO06K042;hulk@marvel.com;4;4;3;4;Accept
CDIO06;CDIO06K042;mickey@disney.com;5;4;3;4;Accept
CDIO06;CDIO06K042;super.duck@disney.com;4;5;5;5;Accept
CDIO06;CDIO06K043;hulk@marvel.com;4;4;4;4;Accept
CDIO06;CDIO06K043;mickey@disney.com;5;4;4;4;Accept
CDIO06;CDIO06K043;super.duck@disney.com;5;4;5;4;Accept
CDIO06;CDIO06K044;hulk@marvel.com;4;5;5;5;Accept
CDIO06;CDIO06K044;mickey@disney.com;4;4;3;4;Accept
CDIO06;CDIO06K044;super.duck@disney.com;4;4;4;4;Accept
CDIO06;CDIO06K045;hulk@marvel.com;5;4;5;4;Accept
CDIO06;CDIO06K045;mickey@disney.com;4;4;4;4;Accept
CDIO06;CDIO06K045;super.duck@disney.com;4;3;5;4;Accept
CDIO06;CDIO06K046;hulk@marvel.com;4;4;4;4;Accept
CDIO06;CDIO06K046;mickey@disney.com;4;5;5;5;Accept
CDIO06;CDIO06K046;super.duck@disney.com;5;3;3;2;Reject
CDIO06;CDIO06K047;hulk@marvel.com;4;3;5;4;Accept
CDIO06;CDIO06K047;mickey@disney.com;5;4;5;4;Accept
CDIO06;CDIO06K047;super.duck@disney.com;5;4;5;5;Accept
CDIO06;CDIO06K048;hulk@marvel.com;5;3;3;2;Reject
CDIO06;CDIO06K048;mickey@disney.com;4;4;4;4;Accept
CDIO06;CDIO06K048;super.duck@disney.com;4;5;4;5;Accept
CDIO06;CDIO06K049;hulk@marvel.com;3;4;4;4;Accept
CDIO06;CDIO06K049;mickey@disney.com;4;3;5;4;Accept
CDIO06;CDIO06K049;super.duck@disney.com;3;4;4;4;Accept
CDIO06;CDIO06K050;hulk@marvel.com;3;4;4;4;Accept
CDIO06;CDIO06K050;mickey@disney.com;5;3;3;2;Reject
CDIO06;CDIO06K050;super.duck@disney.com;3;4;4;4;Accept
CDIO06;CDIO06K051;mickey@disney.com;5;4;5;5;Accept
CDIO06;CDIO06K051;super.duck@disney.com;5;5;4;5;Accept
CDIO06;CDIO06K051;wolverine@marvel.com;5;5;4;5;Accept
CDIO06;CDIO06K052;mickey@disney.com;3;4;4;4;Accept
CDIO06;CDIO06K052;super.duck@disney.com;5;5;4;5;Accept
CDIO06;CDIO06K052;wolverine@marvel.com;5;5;4;5;Accept
CDIO06;CDIO06K053;mickey@disney.com;3;4;4;4;Accept
CDIO06;CDIO06K053;super.duck@disney.com;5;5;4;4;Accept
CDIO06;CDIO06K053;wolverine@marvel.com;5;5;4;4;Accept
CDIO06;CDIO06K054;mickey@disney.com;5;5;4;5;Accept
CDIO06;CDIO06K054;super.duck@disney.com;5;5;4;4;Accept
CDIO06;CDIO06K054;wolverine@marvel.com;5;5;4;4;Accept
CDIO06;CDIO06K055;mickey@disney.com;5;5;4;5;Accept
CDIO06;CDIO06K055;super.duck@disney.com;4;4;3;4;Accept
CDIO06;CDIO06K055;wolverine@marvel.com;4;4;3;4;Accept
CDIO06;CDIO06K056;mickey@disney.com;5;5;4;4;Accept
CDIO06;CDIO06K056;super.duck@disney.com;3;4;3;4;Accept
CDIO06;CDIO06K056;wolverine@marvel.com;3;4;3;4;Accept
CDIO06;CDIO06K057;mickey@disney.com;5;5;4;4;Accept
CDIO06;CDIO06K057;super.duck@disney.com;5;4;3;4;Accept
CDIO06;CDIO06K057;wolverine@marvel.com;5;4;3;4;Accept
CDIO06;CDIO06K058;mickey@disney.com;4;4;3;4;Accept
CDIO06;CDIO06K058;super.duck@disney.com;5;4;4;4;Accept
CDIO06;CDIO06K058;wolverine@marvel.com;5;4;4;4;Accept
CDIO06;CDIO06K059;mickey@disney.com;3;4;3;4;Accept
CDIO06;CDIO06K059;super.duck@disney.com;4;4;3;4;Accept
CDIO06;CDIO06K059;wolverine@marvel.com;4;4;3;4;Accept
CDIO06;CDIO06K060;mickey@disney.com;5;4;3;4;Accept
CDIO06;CDIO06K060;super.duck@disney.com;4;4;4;4;Accept
CDIO06;CDIO06K060;wolverine@marvel.com;4;4;4;4;Accept
CDIO06;CDIO06K061;mickey@disney.com;5;4;4;4;Accept
CDIO06;CDIO06K061;super.duck@disney.com;4;5;5;5;Accept
CDIO06;CDIO06K061;wolverine@marvel.com;4;5;5;5;Accept
CDIO06;CDIO06K062;mickey@disney.com;4;4;3;4;Accept
CDIO06;CDIO06K062;super.duck@disney.com;5;4;5;4;Accept
CDIO06;CDIO06K062;wolverine@marvel.com;5;4;5;4;Accept
CDIO06;CDIO06K063;mickey@disney.com;4;4;4;4;Accept
CDIO06;CDIO06K063;super.duck@disney.com;4;4;4;4;Accept
CDIO06;CDIO06K063;wolverine@marvel.com;4;4;4;4;Accept
CDIO06;CDIO06K064;mickey@disney.com;4;5;5;5;Accept
CDIO06;CDIO06K064;super.duck@disney.com;4;3;5;4;Accept
CDIO06;CDIO06K064;wolverine@marvel.com;4;3;5;4;Accept
CDIO06;CDIO06K065;mickey@disney.com;5;4;5;4;Accept
CDIO06;CDIO06K065;super.duck@disney.com;5;3;3;4;Accept
CDIO06;CDIO06K065;wolverine@marvel.com;5;3;3;4;Accept
CDIO06;CDIO06K066;mickey@disney.com;4;4;4;4;Accept
CDIO06;CDIO06K066;super.duck@disney.com;5;4;5;5;Accept
CDIO06;CDIO06K066;wolverine@marvel.com;5;4;5;5;Accept
CDIO06;CDIO06K067;mickey@disney.com;3;4;4;4;Accept
CDIO06;CDIO06K067;super.duck@disney.com;4;5;4;5;Accept
CDIO06;CDIO06K067;wolverine@marvel.com;4;5;4;5;Accept
CDIO06;CDIO06K068;mickey@disney.com;3;4;4;4;Accept
CDIO06;CDIO06K068;super.duck@disney.com;3;5;5;5;Accept
CDIO06;CDIO06K068;wolverine@marvel.com;3;5;5;5;Accept
CDIO06;CDIO06K069;mickey@disney.com;5;5;4;5;Accept
CDIO06;CDIO06K069;super.duck@disney.com;3;4;4;4;Accept
CDIO06;CDIO06K069;wolverine@marvel.com;3;4;4;4;Accept
CDIO06;CDIO06K070;mickey@disney.com;5;5;4;5;Accept
CDIO06;CDIO06K070;super.duck@disney.com;3;4;4;4;Accept
CDIO06;CDIO06K070;wolverine@marvel.com;3;4;4;4;Accept
CDIO06;CDIO06K071;mickey@disney.com;5;5;4;4;Accept
CDIO06;CDIO06K071;super.duck@disney.com;3;4;4;4;Accept
CDIO06;CDIO06K071;wolverine@marvel.com;3;4;4;4;Accept
CDIO06;CDIO06K072;mickey@disney.com;5;5;4;4;Accept
CDIO06;CDIO06K072;super.duck@disney.com;5;5;4;5;Accept
CDIO06;CDIO06K072;wolverine@marvel.com;5;5;4;5;Accept
CDIO06;CDIO06KLA;rubberwoman@disney.com;5;5;4;5;Accept
CDIO06;CDIO06KLA;thing@marvel.com;5;5;4;4;Accept
CDIO06;CDIO06KLA;wolverine@marvel.com;5;4;3;4;Accept
CDIO09;CDIO09019;hulk@marvel.com;4;4;3;4;Accept
CDIO09;CDIO09019;thing@marvel.com;4;4;4;4;Accept
CDIO09;CDIO09019;wolverine@marvel.com;4;5;4;5;Accept
CDIO09;CDIO09107;hulk@marvel.com;5;4;4;4;Accept
CDIO09;CDIO09107;rubberwoman@disney.com;5;4;5;4;Accept
CDIO09;CDIO09107;thing@marvel.com;5;4;5;5;Accept
CDIO09;CDIO09118;hulk@marvel.com;4;4;4;4;Accept
CDIO09;CDIO09118;thing@marvel.com;4;3;5;4;Accept
CDIO09;CDIO09118;wolverine@marvel.com;3;5;5;5;Accept
CDIO09;CDIO09147;hulk@marvel.com;4;5;5;5;Accept
CDIO09;CDIO09147;thing@marvel.com;5;3;3;2;Reject
CDIO09;CDIO09147;wolverine@marvel.com;3;4;4;4;Accept
CDIO09;CDIO09L011;goofy@disney.com;4;4;3;4;Accept
CDIO09;CDIO09L011;rubberwoman@disney.com;5;5;4;5;Accept
CDIO09;CDIO09L011;super.duck@disney.com;5;5;4;5;Accept
CDIO09;CDIO09L012;goofy@disney.com;3;4;3;4;Accept
CDIO09;CDIO09L012;rubberwoman@disney.com;5;5;4;4;Accept
CDIO09;CDIO09L012;super.duck@disney.com;5;5;4;4;Accept
CDIO09;CDIO09L013;goofy@disney.com;5;4;3;4;Accept
CDIO09;CDIO09L013;rubberwoman@disney.com;5;5;4;4;Accept
CDIO09;CDIO09L013;super.duck@disney.com;5;5;4;4;Accept
CDIO09;CDIO09L014;goofy@disney.com;5;4;4;4;Accept
CDIO09;CDIO09L014;rubberwoman@disney.com;4;4;3;4;Accept
CDIO09;CDIO09L014;super.duck@disney.com;4;4;3;4;Accept
CDIO09;CDIO09L015;goofy@disney.com;4;4;3;4;Accept
CDIO09;CDIO09L015;rubberwoman@disney.com;3;4;3;4;Accept
CDIO09;CDIO09L015;super.duck@disney.com;3;4;3;4;Accept
CDIO09;CDIO09L016;goofy@disney.com;4;4;4;4;Accept
CDIO09;CDIO09L016;rubberwoman@disney.com;5;4;3;4;Accept
CDIO09;CDIO09L016;super.duck@disney.com;5;4;3;4;Accept
CDIO09;CDIO09L017;goofy@disney.com;4;5;5;5;Accept
CDIO09;CDIO09L017;rubberwoman@disney.com;5;4;4;4;Accept
CDIO09;CDIO09L017;super.duck@disney.com;5;4;4;4;Accept
CDIO09;CDIO09L018;goofy@disney.com;5;4;5;4;Accept
CDIO09;CDIO09L018;rubberwoman@disney.com;4;4;3;4;Accept
CDIO09;CDIO09L018;super.duck@disney.com;4;4;3;4;Accept
CDIO09;CDIO09L019;goofy@disney.com;3;4;4;4;Accept
CDIO09;CDIO09L019;rubberwoman@disney.com;4;4;4;4;Accept
CDIO09;CDIO09L019;super.duck@disney.com;3;4;4;4;Accept
CDIO09;CDIO09L020;goofy@disney.com;3;4;4;4;Accept
CDIO09;CDIO09L020;rubberwoman@disney.com;4;5;5;5;Accept
CDIO09;CDIO09L020;super.duck@disney.com;3;4;4;4;Accept
CDIO09;CDIO09L021;goofy@disney.com;5;5;4;5;Accept
CDIO09;CDIO09L021;rubberwoman@disney.com;5;4;5;4;Accept
CDIO09;CDIO09L021;super.duck@disney.com;5;5;4;5;Accept
CDIO09;CDIO09L022;goofy@disney.com;5;5;4;5;Accept
CDIO09;CDIO09L022;rubberwoman@disney.com;4;4;4;4;Accept
CDIO09;CDIO09L022;super.duck@disney.com;5;5;4;5;Accept
CDIO09;CDIO09L023;goofy@disney.com;5;5;4;4;Accept
CDIO09;CDIO09L023;rubberwoman@disney.com;4;3;5;4;Accept
CDIO09;CDIO09L023;super.duck@disney.com;5;5;4;4;Accept
CDIO09;CDIO09L024;goofy@disney.com;5;5;4;4;Accept
CDIO09;CDIO09L024;rubberwoman@disney.com;5;3;3;4;Accept
CDIO09;CDIO09L024;thor@marvel.com;5;5;4;4;Accept
CDIO09;CDIO09L025;goofy@disney.com;4;4;3;4;Accept
CDIO09;CDIO09L025;rubberwoman@disney.com;5;4;5;5;Accept
CDIO09;CDIO09L025;thor@marvel.com;4;4;3;4;Accept
CDIO09;CDIO09L026;goofy@disney.com;3;4;3;4;Accept
CDIO09;CDIO09L026;rubberwoman@disney.com;4;5;4;5;Accept
CDIO09;CDIO09L026;thor@marvel.com;3;4;3;4;Accept
CDIO09;CDIO09L027;goofy@disney.com;5;4;3;4;Accept
CDIO09;CDIO09L027;rubberwoman@disney.com;3;5;5;5;Accept
CDIO09;CDIO09L027;thor@marvel.com;5;4;3;4;Accept
CDIO09;CDIO09L028;goofy@disney.com;5;4;4;4;Accept
CDIO09;CDIO09L028;rubberwoman@disney.com;3;4;4;4;Accept
CDIO09;CDIO09L028;thor@marvel.com;5;4;4;4;Accept
CDIO09;CDIO09L029;goofy@disney.com;4;4;3;4;Accept
CDIO09;CDIO09L029;rubberwoman@disney.com;3;4;4;4;Accept
CDIO09;CDIO09L029;thor@marvel.com;4;4;3;4;Accept
CDIO09;CDIO09L030;goofy@disney.com;4;4;4;4;Accept
CDIO09;CDIO09L030;rubberwoman@disney.com;3;4;4;4;Accept
CDIO09;CDIO09L030;thor@marvel.com;4;4;4;4;Accept
CDIO09;CDIO09L031;goofy@disney.com;4;5;5;5;Accept
CDIO09;CDIO09L031;rubberwoman@disney.com;5;5;4;5;Accept
CDIO09;CDIO09L031;thor@marvel.com;4;5;5;5;Accept
CDIO09;CDIO09L032;goofy@disney.com;5;4;5;4;Accept
CDIO09;CDIO09L032;rubberwoman@disney.com;5;5;4;5;Accept
CDIO09;CDIO09L032;thor@marvel.com;5;4;5;4;Accept
CDIO09;CDIO09L033;goofy@disney.com;4;4;4;4;Accept
CDIO09;CDIO09L033;rubberwoman@disney.com;5;5;4;4;Accept
CDIO09;CDIO09L033;thor@marvel.com;4;4;4;4;Accept
CDIO09;CDIO09L034;goofy@disney.com;4;3;5;4;Accept
CDIO09;CDIO09L034;rubberwoman@disney.com;5;5;4;4;Accept
CDIO09;CDIO09L034;thor@marvel.com;4;3;5;4;Accept
CDIO09;CDIO09L035;goofy@disney.com;5;3;3;4;Accept
CDIO09;CDIO09L035;rubberwoman@disney.com;4;4;3;4;Accept
CDIO09;CDIO09L035;thor@marvel.com;5;3;3;4;Accept
CDIO09;CDIO09L036;goofy@disney.com;3;4;4;4;Accept
CDIO09;CDIO09L036;rubberwoman@disney.com;3;4;3;4;Accept
CDIO09;CDIO09L036;thor@marvel.com;5;4;5;5;Accept
CDIO09;CDIO09L037;goofy@disney.com;3;4;4;4;Accept
CDIO09;CDIO09L037;rubberwoman@disney.com;5;4;3;4;Accept
CDIO09;CDIO09L037;thor@marvel.com;4;5;4;5;Accept
CDIO09;CDIO09L038;goofy@disney.com;5;5;4;5;Accept
CDIO09;CDIO09L038;rubberwoman@disney.com;5;4;4;4;Accept
CDIO09;CDIO09L038;thor@marvel.com;3;5;5;5;Accept
CDIO09;CDIO09L039;goofy@disney.com;5;5;4;5;Accept
CDIO09;CDIO09L039;rubberwoman@disney.com;4;4;3;4;Accept
CDIO09;CDIO09L039;thor@marvel.com;3;4;4;4;Accept
CDIO09;CDIO09L040;goofy@disney.com;5;5;4;4;Accept
CDIO09;CDIO09L040;rubberwoman@disney.com;4;4;4;4;Accept
CDIO09;CDIO09L040;thor@marvel.com;3;4;4;4;Accept
CDIO09;CDIO09L041;goofy@disney.com;5;5;4;4;Accept
CDIO09;CDIO09L041;rubberwoman@disney.com;4;5;5;5;Accept
CDIO09;CDIO09L041;thor@marvel.com;3;4;4;4;Accept
CDIO09;CDIO09L042;goofy@disney.com;4;4;3;4;Accept
CDIO09;CDIO09L042;rubberwoman@disney.com;5;4;5;4;Accept
CDIO09;CDIO09L042;thor@marvel.com;5;5;4;5;Accept
CDIO09;CDIO09L043;goofy@disney.com;3;4;3;4;Accept
CDIO09;CDIO09L043;rubberwoman@disney.com;4;4;4;4;Accept
CDIO09;CDIO09L043;thor@marvel.com;5;5;4;5;Accept
CDIO09;CDIO09L044;goofy@disney.com;5;4;3;4;Accept
CDIO09;CDIO09L044;rubberwoman@disney.com;4;3;5;4;Accept
CDIO09;CDIO09L044;thor@marvel.com;5;5;4;4;Accept
CDIO09;CDIO09L045;goofy@disney.com;5;4;4;4;Accept
CDIO09;CDIO09L045;rubberwoman@disney.com;5;3;3;3;Reject
CDIO09;CDIO09L045;thor@marvel.com;5;5;4;4;Accept
CDIO09;CDIO09L046;goofy@disney.com;4;4;3;4;Accept
CDIO09;CDIO09L046;rubberwoman@disney.com;3;4;4;4;Accept
CDIO09;CDIO09L046;thor@marvel.com;4;4;3;4;Accept
CDIO09;CDIO09L047;goofy@disney.com;4;4;4;4;Accept
CDIO09;CDIO09L047;rubberwoman@disney.com;3;4;4;4;Accept
CDIO09;CDIO09L047;thor@marvel.com;3;4;3;4;Accept
CDIO09;CDIO09L048;goofy@disney.com;4;5;5;5;Accept
CDIO09;CDIO09L048;rubberwoman@disney.com;5;5;4;5;Accept
CDIO09;CDIO09L048;thor@marvel.com;5;4;3;4;Accept
CDIO09;CDIO09L049;goofy@disney.com;5;4;5;4;Accept
CDIO09;CDIO09L049;rubberwoman@disney.com;5;5;4;5;Accept
CDIO09;CDIO09L049;thor@marvel.com;5;4;4;4;Accept
CDIO09;CDIO09L050;goofy@disney.com;4;4;4;4;Accept
CDIO09;CDIO09L050;rubberwoman@disney.com;5;5;4;4;Accept
CDIO09;CDIO09L050;thor@marvel.com;4;4;3;4;Accept
CDIO09;CDIO09L051;goofy@disney.com;4;3;5;4;Accept
CDIO09;CDIO09L051;rubberwoman@disney.com;5;5;4;4;Accept
CDIO09;CDIO09L051;thor@marvel.com;4;4;4;4;Accept
CDIO09;CDIO09L052;goofy@disney.com;5;3;3;4;Accept
CDIO09;CDIO09L052;rubberwoman@disney.com;4;4;3;4;Accept
CDIO09;CDIO09L052;thor@marvel.com;4;5;5;5;Accept
CDIO09;CDIO09L053;goofy@disney.com;5;4;5;5;Accept
CDIO09;CDIO09L053;rubberwoman@disney.com;3;4;3;4;Accept
CDIO09;CDIO09L053;thor@marvel.com;5;4;5;4;Accept
CDIO09;CDIO09L054;goofy@disney.com;4;5;4;5;Accept
CDIO09;CDIO09L054;rubberwoman@disney.com;5;4;3;4;Accept
CDIO09;CDIO09L054;thor@marvel.com;4;4;4;4;Accept
CDIO09;CDIO09L055;goofy@disney.com;3;5;5;5;Accept
CDIO09;CDIO09L055;thor@marvel.com;4;3;5;4;Accept
CDIO09;CDIO09L055;wolverine@marvel.com;5;4;4;4;Accept
CDIO09;CDIO09L056;goofy@disney.com;3;4;4;4;Accept
CDIO09;CDIO09L056;thor@marvel.com;5;3;3;2;Reject
CDIO09;CDIO09L056;wolverine@marvel.com;4;4;3;4;Accept
CDIO09;CDIO09L057;goofy@disney.com;3;4;4;4;Accept
CDIO09;CDIO09L057;thor@marvel.com;5;4;5;5;Accept
CDIO09;CDIO09L057;wolverine@marvel.com;4;4;4;4;Accept
CDIO09;CDIO09L058;goofy@disney.com;5;5;4;5;Accept
CDIO09;CDIO09L058;thor@marvel.com;4;5;4;5;Accept
CDIO09;CDIO09L058;wolverine@marvel.com;4;5;5;5;Accept
CDIO09;CDIO09L059;goofy@disney.com;5;5;4;5;Accept
CDIO09;CDIO09L059;thor@marvel.com;3;4;4;4;Accept
CDIO09;CDIO09L059;wolverine@marvel.com;5;4;5;4;Accept
CDIO09;CDIO09L060;goofy@disney.com;5;5;4;4;Accept
CDIO09;CDIO09L060;thor@marvel.com;3;4;4;4;Accept
CDIO09;CDIO09L060;wolverine@marvel.com;4;4;4;4;Accept
CDIO09;CDIO09L061;goofy@disney.com;5;5;4;4;Accept
CDIO09;CDIO09L061;thor@marvel.com;5;5;4;5;Accept
CDIO09;CDIO09L061;wolverine@marvel.com;4;3;5;4;Accept
CDIO09;CDIO09L062;goofy@disney.com;4;4;3;4;Accept
CDIO09;CDIO09L062;thor@marvel.com;5;5;4;5;Accept
CDIO09;CDIO09L062;wolverine@marvel.com;5;3;3;2;Reject
CDIO09;CDIO09L063;goofy@disney.com;3;4;3;4;Accept
CDIO09;CDIO09L063;thor@marvel.com;5;5;4;4;Accept
CDIO09;CDIO09L063;wolverine@marvel.com;5;4;5;5;Accept
CDIO09;CDIO09L064;goofy@disney.com;5;4;3;4;Accept
CDIO09;CDIO09L064;thor@marvel.com;5;5;4;4;Accept
CDIO09;CDIO09L064;wolverine@marvel.com;4;5;4;5;Accept
CDIO09;CDIO09L065;goofy@disney.com;5;4;4;4;Accept
CDIO09;CDIO09L065;thor@marvel.com;4;4;3;4;Accept
CDIO09;CDIO09L065;wolverine@marvel.com;3;5;5;5;Accept
CDIO09;CDIO09L066;goofy@disney.com;4;4;3;4;Accept
CDIO09;CDIO09L066;thor@marvel.com;3;4;3;4;Accept
CDIO09;CDIO09L066;wolverine@marvel.com;3;4;4;4;Accept
CDIO09;CDIO09L067;goofy@disney.com;4;4;4;4;Accept
CDIO09;CDIO09L067;thor@marvel.com;5;4;3;4;Accept
CDIO09;CDIO09L067;wolverine@marvel.com;3;4;4;4;Accept
CDIO09;CDIO09L068;goofy@disney.com;4;5;5;5;Accept
CDIO09;CDIO09L068;thor@marvel.com;5;4;4;4;Accept
CDIO09;CDIO09L068;wolverine@marvel.com;3;4;4;4;Accept
CDIO09;CDIO09L069;goofy@disney.com;5;4;5;4;Accept
CDIO09;CDIO09L069;thor@marvel.com;4;4;3;4;Accept
CDIO09;CDIO09L069;wolverine@marvel.com;5;5;4;5;Accept
CDIO09;CDIO09L070;thor@marvel.com;4;4;4;4;Accept
CDIO09;CDIO09L070;uncle.scrooge@disney.com;4;4;4;4;Accept
CDIO09;CDIO09L070;wolverine@marvel.com;5;5;4;5;Accept
CDIO09;CDIO09L071;thor@marvel.com;4;5;5;5;Accept
CDIO09;CDIO09L071;uncle.scrooge@disney.com;4;3;5;4;Accept
CDIO09;CDIO09L071;wolverine@marvel.com;5;5;4;4;Accept
CDIO09;CDIO09L072;thor@marvel.com;5;4;5;4;Accept
CDIO09;CDIO09L072;uncle.scrooge@disney.com;5;3;3;3;Reject
CDIO09;CDIO09L072;wolverine@marvel.com;5;5;4;4;Accept
CDIO09;CDIO09L073;thor@marvel.com;4;4;4;4;Accept
CDIO09;CDIO09L073;uncle.scrooge@disney.com;5;4;5;5;Accept
CDIO09;CDIO09L073;wolverine@marvel.com;4;4;3;4;Accept
CDIO09;CDIO09L074;thor@marvel.com;4;3;5;4;Accept
CDIO09;CDIO09L074;uncle.scrooge@disney.com;4;5;4;5;Accept
CDIO09;CDIO09L074;wolverine@marvel.com;3;4;3;4;Accept
CDIO09;CDIO09L075;thor@marvel.com;3;4;4;4;Accept
CDIO09;CDIO09L075;uncle.scrooge@disney.com;3;5;5;5;Accept
CDIO09;CDIO09L075;wolverine@marvel.com;5;4;3;4;Accept
CDIO09;CDIO09L076;thing@marvel.com;5;4;4;4;Accept
CDIO09;CDIO09L076;thor@marvel.com;3;4;4;4;Accept
CDIO09;CDIO09L076;uncle.scrooge@disney.com;3;4;4;4;Accept
CDIO09;CDIO09L077;thing@marvel.com;4;4;3;4;Accept
CDIO09;CDIO09L077;thor@marvel.com;5;5;4;5;Accept
CDIO09;CDIO09L077;uncle.scrooge@disney.com;3;4;4;4;Accept
CDIO09;CDIO09L078;thing@marvel.com;4;4;4;4;Accept
CDIO09;CDIO09L078;thor@marvel.com;5;5;4;5;Accept
CDIO09;CDIO09L078;uncle.scrooge@disney.com;5;5;4;5;Accept
CDIO09;CDIO09L079;thing@marvel.com;4;5;5;5;Accept
CDIO09;CDIO09L079;thor@marvel.com;5;5;4;4;Accept
CDIO09;CDIO09L079;uncle.scrooge@disney.com;5;5;4;5;Accept
CDIO09;CDIO09L080;thing@marvel.com;5;4;5;4;Accept
CDIO09;CDIO09L080;thor@marvel.com;5;5;4;4;Accept
CDIO09;CDIO09L080;uncle.scrooge@disney.com;5;5;4;4;Accept
CDIO09;CDIO09L081;thing@marvel.com;4;4;4;4;Accept
CDIO09;CDIO09L081;thor@marvel.com;4;4;3;4;Accept
CDIO09;CDIO09L081;uncle.scrooge@disney.com;5;5;4;4;Accept
CDIO09;CDIO09L082;thing@marvel.com;4;3;5;4;Accept
CDIO09;CDIO09L082;thor@marvel.com;3;4;3;4;Accept
CDIO09;CDIO09L082;uncle.scrooge@disney.com;4;4;3;4;Accept
CDIO09;CDIO09L083;thing@marvel.com;5;3;3;2;Reject
CDIO09;CDIO09L083;thor@marvel.com;5;4;3;4;Accept
CDIO09;CDIO09L083;uncle.scrooge@disney.com;3;4;3;4;Accept
CDIO09;CDIO09L084;thing@marvel.com;5;4;5;5;Accept
CDIO09;CDIO09L084;thor@marvel.com;5;4;4;4;Accept
CDIO09;CDIO09L084;uncle.scrooge@disney.com;5;4;3;4;Accept
CDIO09;CDIO09L085;thing@marvel.com;4;5;4;5;Accept
CDIO09;CDIO09L085;thor@marvel.com;4;4;3;4;Accept
CDIO09;CDIO09L085;uncle.scrooge@disney.com;5;4;4;4;Accept
CDIO09;CDIO09L086;thing@marvel.com;3;5;5;5;Accept
CDIO09;CDIO09L086;thor@marvel.com;4;4;4;4;Accept
CDIO09;CDIO09L086;uncle.scrooge@disney.com;4;4;3;4;Accept
CDIO09;CDIO09L087;thing@marvel.com;3;4;4;4;Accept
CDIO09;CDIO09L087;thor@marvel.com;4;5;5;5;Accept
CDIO09;CDIO09L087;uncle.scrooge@disney.com;4;4;4;4;Accept
CDIO09;CDIO09L088;thing@marvel.com;3;4;4;4;Accept
CDIO09;CDIO09L088;thor@marvel.com;5;4;5;4;Accept
CDIO09;CDIO09L088;uncle.scrooge@disney.com;4;5;5;5;Accept
CDIO09;CDIO09L089;thing@marvel.com;3;4;4;4;Accept
CDIO09;CDIO09L089;thor@marvel.com;4;4;4;4;Accept
CDIO09;CDIO09L089;uncle.scrooge@disney.com;5;4;5;4;Accept
CDIO09;CDIO09L090;thing@marvel.com;5;5;4;5;Accept
CDIO09;CDIO09L090;thor@marvel.com;4;3;5;4;Accept
CDIO09;CDIO09L090;uncle.scrooge@disney.com;4;4;4;4;Accept
CDIO09;CDIO09L091;thing@marvel.com;5;5;4;5;Accept
CDIO09;CDIO09L091;thor@marvel.com;5;3;3;4;Accept
CDIO09;CDIO09L091;uncle.scrooge@disney.com;4;3;5;4;Accept
CDIO09;CDIO09L092;thing@marvel.com;5;5;4;4;Accept
CDIO09;CDIO09L092;thor@marvel.com;5;4;5;5;Accept
CDIO09;CDIO09L092;uncle.scrooge@disney.com;5;3;3;3;Reject
CDIO09;CDIO09L093;thing@marvel.com;5;5;4;4;Accept
CDIO09;CDIO09L093;thor@marvel.com;4;5;4;5;Accept
CDIO09;CDIO09L093;uncle.scrooge@disney.com;5;4;5;5;Accept
CDIO09;CDIO09L094;thing@marvel.com;4;4;3;4;Accept
CDIO09;CDIO09L094;thor@marvel.com;3;5;5;5;Accept
CDIO09;CDIO09L094;uncle.scrooge@disney.com;4;5;4;5;Accept
CDIO09;CDIO09L095;thing@marvel.com;3;4;3;4;Accept
CDIO09;CDIO09L095;thor@marvel.com;3;4;4;4;Accept
CDIO09;CDIO09L095;uncle.scrooge@disney.com;3;5;5;5;Accept
CDIO09;CDIO09L096;thing@marvel.com;5;4;3;4;Accept
CDIO09;CDIO09L096;thor@marvel.com;3;4;4;4;Accept
CDIO09;CDIO09L096;uncle.scrooge@disney.com;3;4;4;4;Accept
CDIO09;CDIO09L097;thing@marvel.com;5;4;4;4;Accept
CDIO09;CDIO09L097;thor@marvel.com;3;4;4;4;Accept
CDIO09;CDIO09L097;uncle.scrooge@disney.com;3;4;4;4;Accept
CDIO09;CDIO09L098;thing@marvel.com;4;4;3;4;Accept
CDIO09;CDIO09L098;thor@marvel.com;5;5;4;5;Accept
CDIO09;CDIO09L098;uncle.scrooge@disney.com;3;4;4;4;Accept
CDIO09;CDIO09L099;thing@marvel.com;4;4;4;4;Accept
CDIO09;CDIO09L099;thor@marvel.com;5;5;4;5;Accept
CDIO09;CDIO09L099;uncle.scrooge@disney.com;5;5;4;5;Accept
CDIO09;CDIO09L100;thing@marvel.com;4;5;5;5;Accept
CDIO09;CDIO09L100;thor@marvel.com;5;5;4;4;Accept
CDIO09;CDIO09L100;uncle.scrooge@disney.com;5;5;4;5;Accept
CDIO09;CDIO09L101;thing@marvel.com;5;4;5;4;Accept
CDIO09;CDIO09L101;thor@marvel.com;5;5;4;4;Accept
CDIO09;CDIO09L101;uncle.scrooge@disney.com;5;5;4;4;Accept
CDIO09;CDIO09L102;thing@marvel.com;4;4;4;4;Accept
CDIO09;CDIO09L102;thor@marvel.com;4;4;3;4;Accept
CDIO09;CDIO09L102;uncle.scrooge@disney.com;5;5;4;4;Accept
CDIO09;CDIO09L103;thing@marvel.com;4;3;5;4;Accept
CDIO09;CDIO09L103;uncle.scrooge@disney.com;4;4;3;4;Accept
CDIO09;CDIO09L103;wolverine@marvel.com;3;4;4;4;Accept
CDIO09;CDIO09L104;thing@marvel.com;5;3;3;2;Reject
CDIO09;CDIO09L104;uncle.scrooge@disney.com;3;4;3;4;Accept
CDIO09;CDIO09L104;wolverine@marvel.com;3;4;4;4;Accept
CDIO09;CDIO09L105;thing@marvel.com;5;4;5;5;Accept
CDIO09;CDIO09L105;uncle.scrooge@disney.com;5;4;3;4;Accept
CDIO09;CDIO09L105;wolverine@marvel.com;5;5;4;5;Accept
CDIO09;CDIO09L106;thing@marvel.com;4;5;4;5;Accept
CDIO09;CDIO09L106;uncle.scrooge@disney.com;5;4;4;4;Accept
CDIO09;CDIO09L106;wolverine@marvel.com;5;5;4;5;Accept
CDIO09;CDIO09L107;thing@marvel.com;3;5;5;5;Accept
CDIO09;CDIO09L107;uncle.scrooge@disney.com;4;4;3;4;Accept
CDIO09;CDIO09L107;wolverine@marvel.com;5;5;4;4;Accept
CDIO09;CDIO09L108;thing@marvel.com;3;4;4;4;Accept
CDIO09;CDIO09L108;uncle.scrooge@disney.com;4;4;4;4;Accept
CDIO09;CDIO09L108;wolverine@marvel.com;5;5;4;4;Accept
CDIO09;CDIO09L109;thing@marvel.com;3;4;4;4;Accept
CDIO09;CDIO09L109;uncle.scrooge@disney.com;4;5;5;5;Accept
CDIO09;CDIO09L109;wolverine@marvel.com;4;4;3;4;Accept
CDIO09;CDIO09L110;thing@marvel.com;3;4;4;4;Accept
CDIO09;CDIO09L110;uncle.scrooge@disney.com;5;4;5;4;Accept
CDIO09;CDIO09L110;wolverine@marvel.com;3;4;3;4;Accept
CDIO09;CDIO09L111;thing@marvel.com;5;5;4;5;Accept
CDIO09;CDIO09L111;uncle.scrooge@disney.com;4;4;4;4;Accept
CDIO09;CDIO09L111;wolverine@marvel.com;5;4;3;4;Accept
CDIO09;CDIO09L112;thing@marvel.com;5;5;4;5;Accept
CDIO09;CDIO09L112;uncle.scrooge@disney.com;4;3;5;4;Accept
CDIO09;CDIO09L112;wolverine@marvel.com;5;4;4;4;Accept
CDIO09;CDIO09L113;thing@marvel.com;5;5;4;4;Accept
CDIO09;CDIO09L113;uncle.scrooge@disney.com;5;3;3;3;Reject
CDIO09;CDIO09L113;wolverine@marvel.com;4;4;3;4;Accept
CDIO09;CDIO09L114;thing@marvel.com;5;5;4;4;Accept
CDIO09;CDIO09L114;uncle.scrooge@disney.com;5;4;5;5;Accept
CDIO09;CDIO09L114;wolverine@marvel.com;4;4;4;4;Accept
CDIO09;CDIO09L115;thing@marvel.com;4;4;3;4;Accept
CDIO09;CDIO09L115;uncle.scrooge@disney.com;4;5;4;5;Accept
CDIO09;CDIO09L115;wolverine@marvel.com;4;5;5;5;Accept
CDIO09;CDIO09L116;thing@marvel.com;3;4;3;4;Accept
CDIO09;CDIO09L116;uncle.scrooge@disney.com;3;5;5;5;Accept
CDIO09;CDIO09L116;wolverine@marvel.com;5;4;5;4;Accept
CDIO09;CDIO09L117;thing@marvel.com;5;4;3;4;Accept
CDIO09;CDIO09L117;uncle.scrooge@disney.com;3;4;4;4;Accept
CDIO09;CDIO09L117;wolverine@marvel.com;4;4;4;4;Accept
CDIO09;CDIO09L118;thing@marvel.com;5;4;4;4;Accept
CDIO09;CDIO09L118;uncle.scrooge@disney.com;4;5;4;5;Accept
CDIO09;CDIO09L118;wolverine@marvel.com;4;3;5;4;Accept
CDIO09;CDIO09L119;thing@marvel.com;4;4;3;4;Accept
CDIO09;CDIO09L119;uncle.scrooge@disney.com;3;5;5;5;Accept
CDIO09;CDIO09L119;wolverine@marvel.com;5;3;3;2;Reject
CDIO09;CDIO09L120;thing@marvel.com;4;4;4;4;Accept
CDIO09;CDIO09L120;uncle.scrooge@disney.com;3;4;4;4;Accept
CDIO09;CDIO09L120;wolverine@marvel.com;5;4;5;5;Accept
